SYSTEMC/counter999/counter_vcd.vcd
$date
     Nov 20, 2019       01:39:11
$end

$version
              SystemC 2.3.0_pub_rev_20111121-OSCI --- Jul 19 2019 15:43:30
$end

$timescale
     1 ps
$end

$scope module SystemC $end
$var wire    4  aaa  q3 [3:0]  $end
$var wire    4  aab  q2 [3:0]  $end
$var wire    4  aac  q [3:0]  $end
$var wire    1  aad  pulse       $end
$var wire    1  aae  reset       $end
$var wire    1  aaf  en       $end
$var wire    1  aag  clk       $end
$upscope $end
$enddefinitions  $end

$comment
All initial values are dumped below at time 0 sec = 0 timescale units.
$end

$dumpvars
b0 aaa
b0 aab
b0 aac
0aad
1aae
1aaf
xaag
$end

#1000
0aag

#2000
1aag

#3000
0aag

#4000
1aag

#5000
0aag

#6000
1aag

#7000
0aag

#8000
1aag

#9000
0aag

#10000
1aag

#11000
0aag

#12000
1aag

#13000
0aag

#14000
1aag

#15000
0aag

#16000
1aag

#18000
b1 aac
0aae
0aag

#19000
b10 aac
1aag

#20000
0aag

#21000
b11 aac
1aag

#22000
0aag

#23000
b100 aac
1aag

#24000
0aag

#25000
b101 aac
1aag

#26000
0aag

#27000
b110 aac
1aag

#28000
0aag

#29000
b111 aac
1aag

#30000
0aag

#31000
b1000 aac
1aag

#32000
0aag

#33000
b1001 aac
1aag

#34000
0aag

#35000
b1010 aac
1aag

#36000
0aag

#37000
b1011 aac
1aag

#38000
0aag

#39000
b1100 aac
1aag

#40000
0aag

#41000
b1101 aac
1aag

#42000
0aag

#43000
b1110 aac
1aag

#44000
0aag

#45000
b1111 aac
1aad
1aag

#46000
0aag

#47000
b1 aab
b0 aac
0aad
1aag

#48000
0aag

#49000
b1 aac
1aag

#50000
0aag

#51000
b10 aac
1aag

#52000
0aag

#53000
b11 aac
1aag

#54000
0aag

#55000
b100 aac
1aag

#56000
0aag

#57000
b101 aac
1aag

#58000
0aag

#59000
b110 aac
1aag

#60000
0aag

#61000
b111 aac
1aag

#62000
0aag

#63000
b1000 aac
1aag

#64000
0aag

#65000
b1001 aac
1aag

#66000
0aag

#67000
b1010 aac
1aag

#68000
0aag

#69000
b1011 aac
1aag

#70000
0aag

#71000
b1100 aac
1aag

#72000
0aag

#73000
b1101 aac
1aag

#74000
0aag

#75000
b1110 aac
1aag

#76000
0aag

#77000
b1111 aac
1aad
1aag

#78000
0aag

#79000
b10 aab
b0 aac
0aad
1aag

#80000
0aag

#81000
b1 aac
1aag

#82000
0aag

#83000
b10 aac
1aag

#84000
0aag

#85000
b11 aac
1aag

#86000
0aag

#87000
b100 aac
1aag

#88000
0aag

#89000
b101 aac
1aag

#90000
0aag

#91000
b110 aac
1aag

#92000
0aag

#93000
b111 aac
1aag

#94000
0aag

#95000
b1000 aac
1aag

#96000
0aag

#97000
b1001 aac
1aag

#98000
0aag

#99000
b1010 aac
1aag

#100000
0aag

#101000
b1011 aac
1aag

#102000
0aag

#103000
b1100 aac
1aag

#104000
0aag

#105000
b1101 aac
1aag

#106000
0aag

#107000
b1110 aac
1aag

#108000
0aag

#109000
b1111 aac
1aad
1aag

#110000
0aag

#111000
b11 aab
b0 aac
0aad
1aag

#112000
0aag

#113000
b1 aac
1aag

#114000
0aag

#115000
b10 aac
1aag

#116000
0aag

#117000
b11 aac
1aag

#118000
0aag

#119000
b100 aac
1aag

#120000
0aag

#121000
b101 aac
1aag

#122000
0aag

#123000
b110 aac
1aag

#124000
0aag

#125000
b111 aac
1aag

#126000
0aag

#127000
b1000 aac
1aag

#128000
0aag

#129000
b1001 aac
1aag

#130000
0aag

#131000
b1010 aac
1aag

#132000
0aag

#133000
b1011 aac
1aag

#134000
0aag

#135000
b1100 aac
1aag

#136000
0aag

#137000
b1101 aac
1aag

#138000
0aag

#139000
b1110 aac
1aag

#140000
0aag

#141000
b1111 aac
1aad
1aag

#142000
0aag

#143000
b100 aab
b0 aac
0aad
1aag

#144000
0aag

#145000
b1 aac
1aag

#146000
0aag

#147000
b10 aac
1aag

#148000
0aag

#149000
b11 aac
1aag

#150000
0aag

#151000
b100 aac
1aag

#152000
0aag

#153000
b101 aac
1aag

#154000
0aag

#155000
b110 aac
1aag

#156000
0aag

#157000
b111 aac
1aag

#158000
0aag

#159000
b1000 aac
1aag

#160000
0aag

#161000
b1001 aac
1aag

#162000
0aag

#163000
b1010 aac
1aag

#164000
0aag

#165000
b1011 aac
1aag

#166000
0aag

#167000
b1100 aac
1aag

#168000
0aag

#169000
b1101 aac
1aag

#170000
0aag

#171000
b1110 aac
1aag

#172000
0aag

#173000
b1111 aac
1aad
1aag

#174000
0aag

#175000
b101 aab
b0 aac
0aad
1aag

#176000
0aag

#177000
b1 aac
1aag

#178000
0aag

#179000
b10 aac
1aag

#180000
0aag

#181000
b11 aac
1aag

#182000
0aag

#183000
b100 aac
1aag

#184000
0aag

#185000
b101 aac
1aag

#186000
0aag

#187000
b110 aac
1aag

#188000
0aag

#189000
b111 aac
1aag

#190000
0aag

#191000
b1000 aac
1aag

#192000
0aag

#193000
b1001 aac
1aag

#194000
0aag

#195000
b1010 aac
1aag

#196000
0aag

#197000
b1011 aac
1aag

#198000
0aag

#199000
b1100 aac
1aag

#200000
0aag

#201000
b1101 aac
1aag

#202000
0aag

#203000
b1110 aac
1aag

#204000
0aag

#205000
b1111 aac
1aad
1aag

#206000
0aag

#207000
b110 aab
b0 aac
0aad
1aag

#208000
0aag

#209000
b1 aac
1aag

#210000
0aag

#211000
b10 aac
1aag

#212000
0aag

#213000
b11 aac
1aag

#214000
0aag

#215000
b100 aac
1aag

#216000
0aag

#217000
b101 aac
1aag

#218000
0aag

#219000
b110 aac
1aag

#220000
0aag

#221000
b111 aac
1aag

#222000
0aag

#223000
b1000 aac
1aag

#224000
0aag

#225000
b1001 aac
1aag

#226000
0aag

#227000
b1010 aac
1aag

#228000
0aag

#229000
b1011 aac
1aag

#230000
0aag

#231000
b1100 aac
1aag

#232000
0aag

#233000
b1101 aac
1aag

#234000
0aag

#235000
b1110 aac
1aag

#236000
0aag

#237000
b1111 aac
1aad
1aag

#238000
0aag

#239000
b111 aab
b0 aac
0aad
1aag

#240000
0aag

#241000
b1 aac
1aag

#242000
0aag

#243000
b10 aac
1aag

#244000
0aag

#245000
b11 aac
1aag

#246000
0aag

#247000
b100 aac
1aag

#248000
0aag

#249000
b101 aac
1aag

#250000
0aag

#251000
b110 aac
1aag

#252000
0aag

#253000
b111 aac
1aag

#254000
0aag

#255000
b1000 aac
1aag

#256000
0aag

#257000
b1001 aac
1aag

#258000
0aag

#259000
b1010 aac
1aag

#260000
0aag

#261000
b1011 aac
1aag

#262000
0aag

#263000
b1100 aac
1aag

#264000
0aag

#265000
b1101 aac
1aag

#266000
0aag

#267000
b1110 aac
1aag

#268000
0aag

#269000
b1111 aac
1aad
1aag

#270000
0aag

#271000
b1000 aab
b0 aac
0aad
1aag

#272000
0aag

#273000
b1 aac
1aag

#274000
0aag

#275000
b10 aac
1aag

#276000
0aag

#277000
b11 aac
1aag

#278000
0aag

#279000
b100 aac
1aag

#280000
0aag

#281000
b101 aac
1aag

#282000
0aag

#283000
b110 aac
1aag

#284000
0aag

#285000
b111 aac
1aag

#286000
0aag

#287000
b1000 aac
1aag

#288000
0aag

#289000
b1001 aac
1aag

#290000
0aag

#291000
b1010 aac
1aag

#292000
0aag

#293000
b1011 aac
1aag

#294000
0aag

#295000
b1100 aac
1aag

#296000
0aag

#297000
b1101 aac
1aag

#298000
0aag

#299000
b1110 aac
1aag

#300000
0aag

#301000
b1111 aac
1aad
1aag

#302000
0aag

#303000
b1001 aab
b0 aac
0aad
1aag

#304000
0aag

#305000
b1 aac
1aag

#306000
0aag

#307000
b10 aac
1aag

#308000
0aag

#309000
b11 aac
1aag

#310000
0aag

#311000
b100 aac
1aag

#312000
0aag

#313000
b101 aac
1aag

#314000
0aag

#315000
b110 aac
1aag

#316000
0aag

#317000
b111 aac
1aag

#318000
0aag

#319000
b1000 aac
1aag

#320000
0aag

#321000
b1001 aac
1aag

#322000
0aag

#323000
b1010 aac
1aag

#324000
0aag

#325000
b1011 aac
1aag

#326000
0aag

#327000
b1100 aac
1aag

#328000
0aag

#329000
b1101 aac
1aag

#330000
0aag

#331000
b1110 aac
1aag

#332000
0aag

#333000
b1111 aac
1aad
1aag

#334000
0aag

#335000
b1010 aab
b0 aac
0aad
1aag

#336000
0aag

#337000
b1 aac
1aag

#338000
0aag

#339000
b10 aac
1aag

#340000
0aag

#341000
b11 aac
1aag

#342000
0aag

#343000
b100 aac
1aag

#344000
0aag

#345000
b101 aac
1aag

#346000
0aag

#347000
b110 aac
1aag

#348000
0aag

#349000
b111 aac
1aag

#350000
0aag

#351000
b1000 aac
1aag

#352000
0aag

#353000
b1001 aac
1aag

#354000
0aag

#355000
b1010 aac
1aag

#356000
0aag

#357000
b1011 aac
1aag

#358000
0aag

#359000
b1100 aac
1aag

#360000
0aag

#361000
b1101 aac
1aag

#362000
0aag

#363000
b1110 aac
1aag

#364000
0aag

#365000
b1111 aac
1aad
1aag

#366000
0aag

#367000
b1011 aab
b0 aac
0aad
1aag

#368000
0aag

#369000
b1 aac
1aag

#370000
0aag

#371000
b10 aac
1aag

#372000
0aag

#373000
b11 aac
1aag

#374000
0aag

#375000
b100 aac
1aag

#376000
0aag

#377000
b101 aac
1aag

#378000
0aag

#379000
b110 aac
1aag

#380000
0aag

#381000
b111 aac
1aag

#382000
0aag

#383000
b1000 aac
1aag

#384000
0aag

#385000
b1001 aac
1aag

#386000
0aag

#387000
b1010 aac
1aag

#388000
0aag

#389000
b1011 aac
1aag

#390000
0aag

#391000
b1100 aac
1aag

#392000
0aag

#393000
b1101 aac
1aag

#394000
0aag

#395000
b1110 aac
1aag

#396000
0aag

#397000
b1111 aac
1aad
1aag

#398000
0aag

#399000
b1100 aab
b0 aac
0aad
1aag

#400000
0aag

#401000
b1 aac
1aag

#402000
0aag

#403000
b10 aac
1aag

#404000
0aag

#405000
b11 aac
1aag

#406000
0aag

#407000
b100 aac
1aag

#408000
0aag

#409000
b101 aac
1aag

#410000
0aag

#411000
b110 aac
1aag

#412000
0aag

#413000
b111 aac
1aag

#414000
0aag

#415000
b1000 aac
1aag

#416000
0aag

#417000
b1001 aac
1aag

#418000
0aag

#419000
b1010 aac
1aag

#420000
0aag

#421000
b1011 aac
1aag

#422000
0aag

#423000
b1100 aac
1aag

#424000
0aag

#425000
b1101 aac
1aag

#426000
0aag

#427000
b1110 aac
1aag

#428000
0aag

#429000
b1111 aac
1aad
1aag

#430000
0aag

#431000
b1101 aab
b0 aac
0aad
1aag

#432000
0aag

#433000
b1 aac
1aag

#434000
0aag

#435000
b10 aac
1aag

#436000
0aag

#437000
b11 aac
1aag

#438000
0aag

#439000
b100 aac
1aag

#440000
0aag

#441000
b101 aac
1aag

#442000
0aag

#443000
b110 aac
1aag

#444000
0aag

#445000
b111 aac
1aag

#446000
0aag

#447000
b1000 aac
1aag

#448000
0aag

#449000
b1001 aac
1aag

#450000
0aag

#451000
b1010 aac
1aag

#452000
0aag

#453000
b1011 aac
1aag

#454000
0aag

#455000
b1100 aac
1aag

#456000
0aag

#457000
b1101 aac
1aag

#458000
0aag

#459000
b1110 aac
1aag

#460000
0aag

#461000
b1111 aac
1aad
1aag

#462000
0aag

#463000
b1110 aab
b0 aac
0aad
1aag

#464000
0aag

#465000
b1 aac
1aag

#466000
0aag

#467000
b10 aac
1aag

#468000
0aag

#469000
b11 aac
1aag

#470000
0aag

#471000
b100 aac
1aag

#472000
0aag

#473000
b101 aac
1aag

#474000
0aag

#475000
b110 aac
1aag

#476000
0aag

#477000
b111 aac
1aag

#478000
0aag

#479000
b1000 aac
1aag

#480000
0aag

#481000
b1001 aac
1aag

#482000
0aag

#483000
b1010 aac
1aag

#484000
0aag

#485000
b1011 aac
1aag

#486000
0aag

#487000
b1100 aac
1aag

#488000
0aag

#489000
b1101 aac
1aag

#490000
0aag

#491000
b1110 aac
1aag

#492000
0aag

#493000
b1111 aac
1aad
1aag

#494000
0aag

#495000
b1111 aab
b0 aac
0aad
1aag

#496000
0aag

#497000
b1 aaa
b1 aac
1aag

#498000
0aag

#499000
b10 aaa
b10 aac
1aag

#500000
0aag

#501000
b11 aaa
b11 aac
1aag

#502000
0aag

#503000
b100 aaa
b100 aac
1aag

#504000
0aag

#505000
b101 aaa
b101 aac
1aag

#506000
0aag

#507000
b110 aaa
b110 aac
1aag

#508000
0aag

#509000
b111 aaa
b111 aac
1aag

#510000
0aag

#511000
b1000 aaa
b1000 aac
1aag

#512000
0aag

#513000
b1001 aaa
b1001 aac
1aag

#514000
0aag

#515000
b1010 aaa
b1010 aac
1aag

#516000
0aag

#517000
b1011 aaa
b1011 aac
1aag

#518000
0aag

#519000
b1100 aaa
b1100 aac
1aag

#520000
0aag

#521000
b1101 aaa
b1101 aac
1aag

#522000
0aag

#523000
b1110 aaa
b1110 aac
1aag

#524000
0aag

#525000
b1111 aaa
b1111 aac
1aad
1aag

#526000
0aag

#527000
b0 aaa
b0 aab
b0 aac
0aad
1aag

#528000
0aag

#529000
b1 aac
1aag

#530000
0aag

#531000
b10 aac
1aag

#532000
0aag

#533000
b11 aac
1aag

#534000
0aag

#535000
b100 aac
1aag

#536000
0aag

#537000
b101 aac
1aag

#538000
0aag

#539000
b110 aac
1aag

#540000
0aag

#541000
b111 aac
1aag

#542000
0aag

#543000
b1000 aac
1aag

#544000
0aag

#545000
b1001 aac
1aag

#546000
0aag

#547000
b1010 aac
1aag

#548000
0aag

#549000
b1011 aac
1aag

#550000
0aag

#551000
b1100 aac
1aag

#552000
0aag

#553000
b1101 aac
1aag

#554000
0aag

#555000
b1110 aac
1aag

#556000
0aag

#557000
b1111 aac
1aad
1aag

#558000
0aag

#559000
b1 aab
b0 aac
0aad
1aag

#560000
0aag

#561000
b1 aac
1aag

#562000
0aag

#563000
b10 aac
1aag

#564000
0aag

#565000
b11 aac
1aag

#566000
0aag

#567000
b100 aac
1aag

#568000
0aag

#569000
b101 aac
1aag

#570000
0aag

#571000
b110 aac
1aag

#572000
0aag

#573000
b111 aac
1aag

#574000
0aag

#575000
b1000 aac
1aag

#576000
0aag

#577000
b1001 aac
1aag

#578000
0aag

#579000
b1010 aac
1aag

#580000
0aag

#581000
b1011 aac
1aag

#582000
0aag

#583000
b1100 aac
1aag

#584000
0aag

#585000
b1101 aac
1aag

#586000
0aag

#587000
b1110 aac
1aag

#588000
0aag

#589000
b1111 aac
1aad
1aag

#590000
0aag

#591000
b10 aab
b0 aac
0aad
1aag

#592000
0aag

#593000
b1 aac
1aag

#594000
0aag

#595000
b10 aac
1aag

#596000
0aag

#597000
b11 aac
1aag

#598000
0aag

#599000
b100 aac
1aag

#600000
0aag

#601000
b101 aac
1aag

#602000
0aag

#603000
b110 aac
1aag

#604000
0aag

#605000
b111 aac
1aag

#606000
0aag

#607000
b1000 aac
1aag

#608000
0aag

#609000
b1001 aac
1aag

#610000
0aag

#611000
b1010 aac
1aag

#612000
0aag

#613000
b1011 aac
1aag

#614000
0aag

#615000
b1100 aac
1aag

#616000
0aag

#617000
b1101 aac
1aag

#618000
0aag

#619000
b1110 aac
1aag

#620000
0aag

#621000
b1111 aac
1aad
1aag

#622000
0aag

#623000
b11 aab
b0 aac
0aad
1aag

#624000
0aag

#625000
b1 aac
1aag

#626000
0aag

#627000
b10 aac
1aag

#628000
0aag

#629000
b11 aac
1aag

#630000
0aag

#631000
b100 aac
1aag

#632000
0aag

#633000
b101 aac
1aag

#634000
0aag

#635000
b110 aac
1aag

#636000
0aag

#637000
b111 aac
1aag

#638000
0aag

#639000
b1000 aac
1aag

#640000
0aag

#641000
b1001 aac
1aag

#642000
0aag

#643000
b1010 aac
1aag

#644000
0aag

#645000
b1011 aac
1aag

#646000
0aag

#647000
b1100 aac
1aag

#648000
0aag

#649000
b1101 aac
1aag

#650000
0aag

#651000
b1110 aac
1aag

#652000
0aag

#653000
b1111 aac
1aad
1aag

#654000
0aag

#655000
b100 aab
b0 aac
0aad
1aag

#656000
0aag

#657000
b1 aac
1aag

#658000
0aag

#659000
b10 aac
1aag

#660000
0aag

#661000
b11 aac
1aag

#662000
0aag

#663000
b100 aac
1aag

#664000
0aag

#665000
b101 aac
1aag

#666000
0aag

#667000
b110 aac
1aag

#668000
0aag

#669000
b111 aac
1aag

#670000
0aag

#671000
b1000 aac
1aag

#672000
0aag

#673000
b1001 aac
1aag

#674000
0aag

#675000
b1010 aac
1aag

#676000
0aag

#677000
b1011 aac
1aag

#678000
0aag

#679000
b1100 aac
1aag

#680000
0aag

#681000
b1101 aac
1aag

#682000
0aag

#683000
b1110 aac
1aag

#684000
0aag

#685000
b1111 aac
1aad
1aag

#686000
0aag

#687000
b101 aab
b0 aac
0aad
1aag

#688000
0aag

#689000
b1 aac
1aag

#690000
0aag

#691000
b10 aac
1aag

#692000
0aag

#693000
b11 aac
1aag

#694000
0aag

#695000
b100 aac
1aag

#696000
0aag

#697000
b101 aac
1aag

#698000
0aag

#699000
b110 aac
1aag

#700000
0aag

#701000
b111 aac
1aag

#702000
0aag

#703000
b1000 aac
1aag

#704000
0aag

#705000
b1001 aac
1aag

#706000
0aag

#707000
b1010 aac
1aag

#708000
0aag

#709000
b1011 aac
1aag

#710000
0aag

#711000
b1100 aac
1aag

#712000
0aag

#713000
b1101 aac
1aag

#714000
0aag

#715000
b1110 aac
1aag

#716000
0aag

#717000
b1111 aac
1aad
1aag

#718000
0aag

#719000
b110 aab
b0 aac
0aad
1aag

#720000
0aag

#721000
b1 aac
1aag

#722000
0aag

#723000
b10 aac
1aag

#724000
0aag

#725000
b11 aac
1aag

#726000
0aag

#727000
b100 aac
1aag

#728000
0aag

#729000
b101 aac
1aag

#730000
0aag

#731000
b110 aac
1aag

#732000
0aag

#733000
b111 aac
1aag

#734000
0aag

#735000
b1000 aac
1aag

#736000
0aag

#737000
b1001 aac
1aag

#738000
0aag

#739000
b1010 aac
1aag

#740000
0aag

#741000
b1011 aac
1aag

#742000
0aag

#743000
b1100 aac
1aag

#744000
0aag

#745000
b1101 aac
1aag

#746000
0aag

#747000
b1110 aac
1aag

#748000
0aag

#749000
b1111 aac
1aad
1aag

#750000
0aag

#751000
b111 aab
b0 aac
0aad
1aag

#752000
0aag

#753000
b1 aac
1aag

#754000
0aag

#755000
b10 aac
1aag

#756000
0aag

#757000
b11 aac
1aag

#758000
0aag

#759000
b100 aac
1aag

#760000
0aag

#761000
b101 aac
1aag

#762000
0aag

#763000
b110 aac
1aag

#764000
0aag

#765000
b111 aac
1aag

#766000
0aag

#767000
b1000 aac
1aag

#768000
0aag

#769000
b1001 aac
1aag

#770000
0aag

#771000
b1010 aac
1aag

#772000
0aag

#773000
b1011 aac
1aag

#774000
0aag

#775000
b1100 aac
1aag

#776000
0aag

#777000
b1101 aac
1aag

#778000
0aag

#779000
b1110 aac
1aag

#780000
0aag

#781000
b1111 aac
1aad
1aag

#782000
0aag

#783000
b1000 aab
b0 aac
0aad
1aag

#784000
0aag

#785000
b1 aac
1aag

#786000
0aag

#787000
b10 aac
1aag

#788000
0aag

#789000
b11 aac
1aag

#790000
0aag

#791000
b100 aac
1aag

#792000
0aag

#793000
b101 aac
1aag

#794000
0aag

#795000
b110 aac
1aag

#796000
0aag

#797000
b111 aac
1aag

#798000
0aag

#799000
b1000 aac
1aag

#800000
0aag

#801000
b1001 aac
1aag

#802000
0aag

#803000
b1010 aac
1aag

#804000
0aag

#805000
b1011 aac
1aag

#806000
0aag

#807000
b1100 aac
1aag

#808000
0aag

#809000
b1101 aac
1aag

#810000
0aag

#811000
b1110 aac
1aag

#812000
0aag

#813000
b1111 aac
1aad
1aag

#814000
0aag

#815000
b1001 aab
b0 aac
0aad
1aag

#816000
0aag

#817000
b1 aac
1aag

