SYSTEMC/counter/counter_vcd.vcd
$date
     Nov 19, 2019       22:41:56
$end

$version
              SystemC 2.3.0_pub_rev_20111121-OSCI --- Jul 19 2019 15:43:30
$end

$timescale
     1 ps
$end

$scope module SystemC $end
$var wire    4  aaa  q [3:0]  $end
$var wire    1  aab  pulse       $end
$var wire    1  aac  reset       $end
$var wire    1  aad  en       $end
$var wire    1  aae  clk       $end
$upscope $end
$enddefinitions  $end

$comment
All initial values are dumped below at time 0 sec = 0 timescale units.
$end

$dumpvars
b0 aaa
xaab
1aac
1aad
xaae
$end

#1000
0aae

#2000
1aae

#3000
0aae

#4000
1aae

#5000
0aae

#6000
1aae

#7000
0aae

#8000
1aae

#9000
0aae

#10000
1aae

#11000
0aae

#12000
1aae

#13000
0aae

#14000
1aae

#15000
0aae

#16000
1aae

#18000
b1 aaa
0aac
0aae

#19000
b10 aaa
1aae

#20000
0aae

#21000
b11 aaa
1aae

#22000
0aae

#23000
b100 aaa
1aae

#24000
0aae

#25000
b101 aaa
1aae

#26000
0aae

#27000
b110 aaa
1aae

#28000
0aae

#29000
b111 aaa
1aae

#30000
0aae

#31000
b1000 aaa
1aae

#32000
0aae

#33000
b1001 aaa
1aae

